"MouseID","Barrier","Protocollo","Threshold","Rate","Ratio"
"A1",0.0,1.0,4.0,0.9627735339516286,4.154663437394579
"A1",0.0,2.0,4.0,1.1571315358949545,3.456823944311828
"A1",0.0,3.0,4.0,1.9361647398785302,2.0659399056357928
"A1",1.0,1.0,5.0,0.9109069836656166,5.489034654097505
"A1",1.0,2.0,4.0,1.0525740426006822,3.8002077175652818
"A1",1.0,3.0,4.0,1.2712039563748931,3.146623309297153
"A2",0.0,1.0,5.0,1.143854239371805,4.371186317188418
"A2",0.0,2.0,5.0,1.3285915771465424,3.763383786263839
"A2",0.0,3.0,2.0,1.3321691660286978,1.5013108327391775
"A2",1.0,1.0,6.0,0.9555331741954025,6.279216841479357
"A2",1.0,2.0,6.0,1.3086173414477844,4.584991968211211
"A2",1.0,3.0,3.0,1.01285369269974,2.9619282840383034
"A3",0.0,1.0,6.0,1.3351371751447338,4.493920259054713
"A3",0.0,2.0,5.0,1.4693297591398748,3.402912088928853
"A3",0.0,3.0,5.0,2.078640323223873,2.4054185537232513
"A3",1.0,1.0,3.0,0.6306647792807509,4.756885271794289
"A3",1.0,2.0,4.0,0.9931882424983396,4.027433903101896
"A3",1.0,3.0,4.0,1.7257321413045308,2.317856812341853
"A4",0.0,1.0,5.0,1.137255674547708,4.396548737370358
"A4",0.0,2.0,5.0,1.4132602328927946,3.5379188373294332
"A4",0.0,3.0,6.0,2.4512227154438087,2.4477579953046673
"A4",1.0,1.0,7.0,1.291426052362218,5.420364555288255
"A4",1.0,2.0,5.0,1.220803867296533,4.095661992841231
"A4",1.0,3.0,4.0,1.4770689410630464,2.708065878848688
"A5",0.0,1.0,8.0,1.7554298846989158,4.557288257270456
"A5",0.0,2.0,6.0,1.8013158168876462,3.3308984153411445
"A5",0.0,3.0,4.0,2.1459537738512986,1.863973049531856
"A5",1.0,1.0,9.0,1.520368684813825,5.919616794200207
"A5",1.0,2.0,5.0,1.304023284786362,3.8342873615321595
"A5",1.0,3.0,6.0,2.3869632717941935,2.5136540938436887
"B1",0.0,1.0,4.0,1.0125562744435426,3.950397722040909
"B1",0.0,2.0,4.0,1.3307934869605567,3.005725560872508
"B1",0.0,3.0,4.0,1.8490099702844491,2.163319865378901
"B1",1.0,1.0,6.0,1.3569423611792726,4.421705867289457
"B1",1.0,2.0,5.0,1.4217502442604015,3.516792080877056
"B1",1.0,3.0,5.0,2.2135598300033767,2.2588049946643514
"B2",0.0,1.0,7.0,1.3815600135483932,5.066736103646506
"B2",0.0,2.0,5.0,1.3743201706486066,3.638162421526757
"B2",0.0,3.0,4.0,1.7218813055363058,2.3230404948000407
"B2",1.0,1.0,8.0,1.6311428888771453,4.904536601025237
"B2",1.0,2.0,6.0,1.5662574200521169,3.830787917225223
"B2",1.0,3.0,5.0,1.95598367539821,2.5562585531201187
"B3",0.0,1.0,5.0,1.0844721330945148,4.610538018835599
"B3",0.0,2.0,5.0,1.5208130177103394,3.287715150891956
"B3",0.0,3.0,4.0,1.4511832668035425,2.756371363632537
"B3",1.0,1.0,6.0,1.130955605792319,5.305248030311987
"B3",1.0,2.0,5.0,1.4989291351001701,3.335714733215764
"B3",1.0,3.0,6.0,2.0564771937710695,2.9176107657179933
"B4",0.0,1.0,8.0,1.7000708267798492,4.705686300819019
"B4",0.0,2.0,6.0,1.699664345877434,3.53010876209359
"B4",0.0,3.0,5.0,2.025384411175475,2.46866716876632
"B4",1.0,1.0,7.0,1.2434196602107908,5.629635933867513
"B4",1.0,2.0,6.0,1.596956075565334,3.7571477962385136
"B4",1.0,3.0,6.0,2.269944740995739,2.6432361509241087
"B5",0.0,1.0,6.0,1.2200177518998485,4.917961226922
"B5",0.0,2.0,5.0,1.414338614310807,3.5352213037303306
"B5",0.0,3.0,4.0,1.6832124514782347,2.3764082760242835
"B5",1.0,1.0,3.0,0.6822159544093543,4.397434537568571
"B5",1.0,2.0,4.0,1.078217032523012,3.7098282436144223
"B5",1.0,3.0,5.0,1.663946889802171,3.0049036003754046
"C1",0.0,1.0,8.0,1.6989716401136168,4.708730746950555
"C1",0.0,2.0,4.0,1.2797853680058273,3.1255240917723843
"C1",0.0,3.0,3.0,1.5501592315759276,1.935285059038826
"C1",1.0,1.0,6.0,1.3409342979902032,4.47449215744039
"C1",1.0,2.0,4.0,1.1964127165242553,3.343327887403733
"C1",1.0,3.0,6.0,2.22863441361106,2.692231603064134
"C2",0.0,1.0,9.0,1.841922597668479,4.886198807372403
"C2",0.0,2.0,8.0,2.0762595032281306,3.853082905851482
"C2",0.0,3.0,3.0,1.2446614850482765,2.4102939120701077
"C2",1.0,1.0,8.0,1.4452273518359955,5.5354612475586755
"C2",1.0,2.0,6.0,1.5660465923359828,3.8313036338530266
"C2",1.0,3.0,4.0,1.7370411206934566,2.3027664413627305
"C3",0.0,1.0,5.0,1.3155794373552612,3.8006066817611655
"C3",0.0,2.0,5.0,1.4738177155218801,3.3925498026935412
"C3",0.0,3.0,5.0,1.8193045332074558,2.748302941445949
"C3",1.0,1.0,9.0,1.5680673240367853,5.739549483647597
"C3",1.0,2.0,7.0,1.8033178001135879,3.8817339902922723
"C3",1.0,3.0,5.0,2.151301830943191,2.3241741015057196
"C4",0.0,1.0,4.0,1.0857046828384906,3.6842431125398765
"C4",0.0,2.0,4.0,1.3361128908681037,2.9937590059482972
"C4",0.0,3.0,4.0,1.4776213419013906,2.7070534828989636
"C4",1.0,1.0,4.0,0.9051461624359171,4.41917578177126
"C4",1.0,2.0,4.0,1.231190759054345,3.248887282968503
"C4",1.0,3.0,4.0,1.6942962802515502,2.3608621742391622
"C5",0.0,1.0,9.0,2.227093858324109,4.041140864522212
"C5",0.0,2.0,6.0,2.0975903002170613,2.8604251265745804
"C5",0.0,3.0,6.0,2.803934299617616,2.1398504240339173
"C5",1.0,1.0,11.0,2.5908374329856394,4.245731461168437
"C5",1.0,2.0,5.0,1.5961960098389913,3.132447374369988
"C5",1.0,3.0,5.0,2.3300384992525043,2.145887289675274
"D1",0.0,1.0,8.0,1.8701303160813811,4.27777675769835
"D1",0.0,2.0,4.0,1.207369833672198,3.312986533574437
"D1",0.0,3.0,4.0,1.5615192817050474,2.5616078180170385
"D1",1.0,1.0,8.0,1.7630106028700574,4.5376925056358495
"D1",1.0,2.0,6.0,1.6565671536514366,3.6219479462542084
"D1",1.0,3.0,4.0,1.3098279384317457,3.0538362197321822
"D2",0.0,1.0,6.0,1.365851127779741,4.392865282289804
"D2",0.0,2.0,4.0,1.2600969273582523,3.1743589823569014
"D2",0.0,3.0,4.0,1.7966688375811601,2.22634239339575
"D2",1.0,1.0,5.0,1.1584662377197876,4.316051549194489
"D2",1.0,2.0,4.0,1.2158962731631686,3.2897543057632315
"D2",1.0,3.0,3.0,1.368875229247814,2.1915803105360276
"D3",0.0,1.0,7.0,1.4764251598703326,4.741181734274141
"D3",0.0,2.0,5.0,1.3765376435293226,3.632301683505317
"D3",0.0,3.0,4.0,1.8079664769417056,2.2124304023414547
"D3",1.0,1.0,6.0,1.2096832823177184,4.95997596040525
"D3",1.0,2.0,4.0,1.1203884859314006,3.5701902065467253
"D3",1.0,3.0,3.0,1.5072413684547967,1.990391229160303
"D4",0.0,1.0,4.0,0.8211469655853751,4.871235196185009
"D4",0.0,2.0,4.0,1.0747249455445136,3.7218825305793795
"D4",0.0,3.0,5.0,1.6555404285625195,3.0201618237383814
"D4",1.0,1.0,4.0,0.6680445694411148,5.987624453479795
"D4",1.0,2.0,4.0,0.973476119320167,4.108986261310061
"D4",1.0,3.0,4.0,1.2156646620864646,3.2903810769120625
"D5",0.0,1.0,3.0,0.7200595752286069,4.166321931136809
"D5",0.0,2.0,3.0,0.884342046935099,3.392352552270046
"D5",0.0,3.0,3.0,1.3696114287112435,2.190402282801404
"D5",1.0,1.0,6.0,1.2797922409548295,4.6882609598597895
"D5",1.0,2.0,5.0,1.272195804560602,3.9302126151303627
"D5",1.0,3.0,4.0,1.5137413382067042,2.642459381296088
