"arrest","week","fin","age","race","wexp","mar","paro","prio","event"
1,20,0,27,1,0,0,1,3,20
1,17,0,18,1,0,0,1,8,17
1,25,0,19,0,1,0,1,13,25
0,52,1,23,1,1,1,1,1,52+
0,52,0,19,0,1,0,1,3,52+
0,52,0,24,1,1,0,0,2,52+
1,23,0,25,1,1,1,1,0,23
0,52,1,21,1,1,0,1,4,52+
0,52,0,22,1,0,0,0,6,52+
0,52,0,20,1,1,0,0,0,52+
0,52,1,26,1,0,0,1,3,52+
0,52,0,40,1,1,0,0,2,52+
1,37,0,17,1,1,0,1,5,37
0,52,0,37,1,1,0,0,2,52+
1,25,0,20,1,0,0,1,3,25
1,46,1,22,1,1,0,1,2,46
1,28,0,19,1,0,0,0,7,28
0,52,0,20,1,0,0,0,2,52+
0,52,0,25,1,0,0,1,12,52+
0,52,0,24,0,1,0,1,1,52+
0,52,0,23,1,0,0,1,4,52+
0,52,1,44,1,1,1,1,0,52+
1,24,1,29,1,1,0,1,2,24
0,52,1,28,0,1,0,1,1,52+
0,52,1,21,1,1,0,0,0,52+
0,52,1,19,1,1,0,1,2,52+
0,52,0,33,1,1,0,1,1,52+
0,52,0,19,1,0,0,0,2,52+
0,52,1,19,1,0,0,1,3,52+
0,52,1,23,1,1,1,1,9,52+
0,52,1,23,1,0,0,1,3,52+
0,52,1,19,1,0,0,1,1,52+
0,52,1,42,1,1,0,0,0,52+
0,52,0,23,1,1,1,0,2,52+
0,52,0,24,1,1,0,0,3,52+
1,50,1,20,1,1,0,1,2,50
0,52,0,22,1,1,0,1,5,52+
0,52,0,27,1,1,0,0,2,52+
0,52,1,19,1,0,0,0,4,52+
0,52,0,28,1,1,0,1,3,52+
0,52,1,33,1,1,1,0,9,52+
0,52,0,24,1,1,0,1,1,52+
1,10,0,21,1,0,0,1,14,10
0,52,0,22,1,0,0,1,2,52+
0,52,1,19,1,0,0,1,2,52+
0,52,1,22,1,0,0,0,2,52+
0,52,1,22,1,0,0,0,15,52+
1,20,1,23,1,1,0,1,5,20
0,52,0,32,1,1,1,1,2,52+
0,52,1,27,1,1,0,1,0,52+
0,52,1,36,1,1,0,0,0,52+
0,52,1,22,1,1,0,1,1,52+
0,52,1,32,1,1,0,1,1,52+
1,50,1,19,1,1,0,0,10,50
0,52,0,28,1,1,1,1,1,52+
0,52,0,32,0,1,0,0,3,52+
0,52,0,33,1,1,1,1,1,52+
0,52,0,26,1,0,0,1,1,52+
0,52,1,20,1,1,0,1,0,52+
0,52,1,42,1,1,0,0,9,52+
1,6,0,19,1,0,0,0,6,6
0,52,0,22,1,1,0,0,2,52+
0,52,0,22,1,0,0,1,5,52+
0,52,0,36,1,0,0,0,11,52+
1,52,0,23,1,1,0,0,2,52
0,52,1,27,1,1,0,1,3,52+
0,52,1,21,1,0,0,1,1,52+
0,52,1,22,1,1,0,1,2,52+
1,49,0,35,1,1,0,1,3,49
0,52,0,21,1,1,0,1,4,52+
0,52,1,25,1,1,0,1,5,52+
0,52,0,18,1,0,0,1,0,52+
0,52,1,26,1,1,0,1,2,52+
0,52,0,30,1,1,0,0,4,52+
0,52,0,20,1,0,0,1,2,52+
0,52,1,43,1,1,0,1,1,52+
1,43,0,23,1,1,1,1,4,43
0,52,0,42,0,1,0,0,2,52+
0,52,0,21,0,0,0,0,2,52+
1,5,0,19,1,0,0,0,3,5
1,27,0,29,1,0,0,0,4,27
0,52,0,30,1,1,0,1,3,52+
0,52,1,21,0,1,1,1,10,52+
0,52,0,20,1,0,0,1,7,52+
1,22,1,19,1,0,0,1,10,22
0,52,1,22,1,1,0,1,1,52+
0,52,0,25,1,0,0,1,3,52+
1,18,0,22,1,0,0,0,4,18
0,52,1,22,1,1,0,1,4,52+
0,52,1,24,1,0,0,1,2,52+
0,52,0,39,1,1,1,1,4,52+
0,52,0,21,1,1,0,1,1,52+
0,52,1,20,1,1,0,1,2,52+
0,52,1,24,1,0,0,0,1,52+
0,52,0,25,1,1,0,1,2,52+
1,24,1,21,1,1,0,0,4,24
0,52,1,20,1,0,0,1,1,52+
0,52,1,19,1,0,0,1,3,52+
0,52,1,24,1,0,0,0,2,52+
0,52,1,24,1,1,0,1,1,52+
1,2,0,44,1,1,0,1,2,2
1,26,0,32,1,1,0,0,2,26
0,52,0,23,1,1,0,0,3,52+
1,49,1,19,1,0,0,1,1,49
0,52,0,20,1,0,0,1,1,52+
1,21,0,27,1,1,0,1,0,21
1,48,0,19,1,0,0,0,6,48
0,52,1,21,1,1,0,0,1,52+
0,52,0,20,1,0,0,1,1,52+
0,52,0,25,1,0,0,1,3,52+
0,52,0,20,1,0,0,1,6,52+
0,52,1,23,1,1,0,1,3,52+
0,52,0,20,1,0,0,0,2,52+
0,52,1,30,1,1,0,0,1,52+
0,52,0,25,1,1,1,1,0,52+
0,52,0,22,1,1,0,1,1,52+
0,52,0,24,1,1,0,1,3,52+
0,52,1,18,1,0,0,0,4,52+
1,8,1,40,1,1,0,1,1,8
0,52,0,22,1,0,0,1,1,52+
0,52,1,23,1,0,0,1,6,52+
1,49,0,21,1,1,0,1,1,49
0,52,1,24,0,1,1,1,2,52+
0,52,1,24,1,0,0,1,14,52+
0,52,0,38,1,1,0,1,2,52+
0,52,0,26,0,1,0,0,3,52+
0,52,1,29,1,1,0,0,1,52+
0,52,0,21,1,0,0,1,8,52+
0,52,1,21,1,1,1,1,2,52+
0,52,0,22,0,0,0,1,4,52+
1,8,0,23,1,0,0,1,5,8
0,52,0,27,1,1,0,0,2,52+
0,52,1,18,1,0,0,1,2,52+
1,13,0,23,1,0,0,0,5,13
0,52,1,24,1,0,0,1,2,52+
0,52,1,21,1,0,0,0,3,52+
0,52,1,20,1,0,0,1,4,52+
0,52,1,27,1,1,0,0,4,52+
1,8,1,20,1,0,0,1,11,8
0,52,1,29,1,1,1,1,5,52+
1,33,0,19,1,0,0,0,10,33
0,52,0,20,1,0,0,0,8,52+
0,52,1,18,1,0,0,1,0,52+
1,11,1,19,1,0,0,1,2,11
0,52,1,24,1,1,0,1,1,52+
0,52,0,28,0,1,0,1,4,52+
0,52,1,26,1,0,0,0,4,52+
0,52,1,17,1,0,0,1,0,52+
0,52,0,21,1,0,0,1,3,52+
1,37,0,34,1,1,0,0,2,37
0,52,1,26,1,1,0,0,1,52+
0,52,1,43,1,1,0,1,2,52+
0,52,0,20,1,0,0,1,0,52+
1,44,0,20,1,1,0,1,1,44
0,52,0,32,1,1,0,1,1,52+
1,52,0,25,0,1,0,1,1,52
0,52,1,22,1,0,0,1,1,52+
0,52,1,31,0,1,0,1,1,52+
0,52,1,42,1,1,1,1,4,52+
0,52,1,32,1,1,0,0,10,52+
0,52,1,20,1,0,0,0,8,52+
0,52,0,20,0,0,0,0,1,52+
0,52,1,36,1,0,0,1,8,52+
0,52,1,34,1,1,0,1,2,52+
0,52,1,28,1,1,1,1,3,52+
0,52,1,21,1,1,0,1,2,52+
0,52,0,18,0,0,0,1,6,52+
0,52,1,20,0,0,0,1,4,52+
0,52,0,17,0,0,0,1,3,52+
0,52,1,44,1,0,0,1,3,52+
0,52,1,30,1,1,0,1,5,52+
0,52,1,22,1,0,0,0,11,52+
1,9,1,30,1,0,0,0,3,9
1,17,0,23,1,0,0,0,8,17
0,52,1,20,1,1,0,0,2,52+
0,52,0,19,1,0,0,0,10,52+
0,52,1,21,1,0,0,1,1,52+
0,52,1,22,1,0,0,1,6,52+
0,52,1,19,1,0,0,1,2,52+
0,52,1,21,1,0,0,0,10,52+
1,16,0,38,1,0,0,1,3,16
0,52,1,24,1,0,0,0,7,52+
0,52,1,39,1,1,1,0,2,52+
1,3,0,30,1,0,0,1,3,3
0,52,0,37,1,1,0,0,0,52+
0,52,1,23,1,0,0,1,2,52+
0,52,0,21,0,0,0,1,1,52+
0,52,1,31,1,1,0,1,1,52+
0,52,1,24,1,0,0,0,13,52+
0,52,0,31,0,1,1,1,3,52+
0,52,0,24,1,0,0,1,2,52+
0,52,1,24,1,1,0,1,1,52+
0,52,1,21,0,1,0,0,1,52+
0,52,1,22,1,0,0,0,2,52+
1,45,0,20,1,0,0,1,5,45
0,52,1,21,1,1,0,1,0,52+
0,52,1,24,1,1,0,1,2,52+
0,52,0,25,1,1,0,1,1,52+
0,52,0,19,1,0,0,1,1,52+
0,52,0,20,0,0,0,0,2,52+
0,52,0,20,1,1,0,1,4,52+
1,28,0,24,1,1,0,0,1,28
0,52,1,18,1,0,0,0,4,52+
1,16,1,28,1,0,0,1,5,16
1,15,1,19,1,0,0,0,4,15
0,52,0,19,1,1,0,0,1,52+
0,52,0,25,1,1,1,0,0,52+
0,52,1,19,0,0,0,0,1,52+
0,52,1,25,1,0,0,0,2,52+
1,14,0,24,1,0,0,0,0,14
0,52,1,20,1,1,0,1,1,52+
0,52,1,30,1,0,0,1,1,52+
0,52,0,29,1,1,0,1,4,52+
0,52,0,28,0,1,1,1,4,52+
0,52,1,36,1,0,0,1,1,52+
0,52,1,23,1,1,0,0,7,52+
0,52,1,23,1,0,0,0,2,52+
0,52,0,24,1,1,0,1,4,52+
0,52,0,29,1,1,1,1,1,52+
0,52,0,26,1,1,1,1,2,52+
0,52,0,39,0,1,1,0,3,52+
0,52,1,20,1,1,0,1,1,52+
0,52,0,23,1,1,0,1,3,52+
0,52,1,21,1,1,0,1,2,52+
0,52,1,21,1,0,0,1,1,52+
1,7,1,20,0,0,0,1,2,7
0,52,1,20,0,0,0,1,3,52+
0,52,1,27,1,1,0,1,2,52+
1,43,0,18,0,1,0,0,3,43
1,46,1,25,1,1,0,0,1,46
1,40,1,20,1,0,0,0,6,40
0,52,1,20,1,1,0,0,5,52+
1,14,0,20,0,0,0,0,7,14
0,52,0,24,0,1,1,0,11,52+
0,52,1,23,1,0,0,0,1,52+
1,8,0,28,1,1,0,0,4,8
0,52,0,21,1,0,0,0,2,52+
0,52,0,25,1,0,0,0,1,52+
0,52,0,24,1,1,0,1,1,52+
0,52,0,29,1,1,1,0,3,52+
0,52,0,22,1,1,1,1,2,52+
1,25,0,28,1,0,0,1,18,25
0,52,0,19,1,0,0,1,1,52+
0,52,0,20,1,1,0,1,1,52+
1,17,0,20,1,0,0,1,5,17
1,37,1,22,1,1,0,1,1,37
0,52,0,20,1,0,0,1,8,52+
0,52,1,21,1,0,0,1,2,52+
0,52,1,21,1,1,0,1,1,52+
1,32,0,19,1,0,0,1,3,32
0,52,0,26,1,1,0,1,1,52+
0,52,0,23,1,1,1,1,2,52+
0,52,1,22,0,1,0,1,4,52+
0,52,1,24,1,1,0,0,8,52+
0,52,1,40,1,0,0,0,5,52+
0,52,1,32,1,0,0,0,2,52+
0,52,0,38,1,1,0,0,0,52+
0,52,0,26,1,1,0,1,1,52+
1,12,1,27,1,1,0,1,0,12
0,52,0,29,1,1,1,1,3,52+
1,18,0,20,1,1,0,1,4,18
0,52,0,22,1,0,0,0,1,52+
0,52,0,22,0,0,0,0,5,52+
1,14,1,19,1,1,0,0,12,14
0,52,0,22,1,1,0,0,1,52+
0,52,0,19,1,0,0,0,3,52+
0,52,1,32,1,1,0,0,1,52+
0,52,1,25,1,1,0,1,2,52+
1,38,0,21,1,0,0,1,2,38
0,52,1,36,1,1,0,1,1,52+
1,24,0,40,1,1,0,0,2,24
1,20,1,20,1,0,0,1,1,20
1,32,1,19,1,0,0,1,0,32
0,52,0,18,1,0,0,1,4,52+
0,52,1,28,1,1,0,0,0,52+
0,52,1,22,1,1,0,0,2,52+
0,52,1,25,1,0,0,1,1,52+
0,52,1,28,1,1,0,0,2,52+
0,52,1,25,1,1,0,0,2,52+
0,52,1,20,1,1,0,0,4,52+
0,52,1,24,1,0,0,0,5,52+
0,52,0,24,1,1,0,0,0,52+
0,52,1,36,0,1,0,1,2,52+
0,52,1,34,1,1,0,0,1,52+
1,31,0,19,1,1,0,1,5,31
1,20,1,23,1,0,0,1,1,20
1,40,0,19,1,1,0,1,3,40
0,52,1,40,1,1,0,0,2,52+
0,52,1,31,1,1,0,0,2,52+
0,52,0,23,1,1,1,1,0,52+
0,52,0,42,1,0,0,1,2,52+
1,42,1,26,1,1,1,1,1,42
0,52,0,20,1,0,0,1,9,52+
1,26,0,27,1,1,0,1,1,26
0,52,1,24,1,0,0,0,5,52+
0,52,0,25,1,0,0,0,2,52+
0,52,1,22,1,1,0,1,3,52+
0,52,1,20,1,0,0,1,2,52+
0,52,1,20,1,1,0,1,2,52+
1,47,0,22,1,0,0,1,3,47
0,52,0,18,1,1,0,1,1,52+
0,52,0,20,1,1,0,1,2,52+
1,40,0,20,1,1,0,1,1,40
0,52,0,22,1,1,0,1,2,52+
0,52,1,30,1,1,1,0,2,52+
0,52,0,36,0,1,0,0,1,52+
0,52,0,25,0,1,1,1,5,52+
1,21,0,29,1,0,0,1,3,21
0,52,0,19,1,1,0,1,3,52+
0,52,1,24,1,1,0,1,2,52+
0,52,1,21,1,0,0,0,0,52+
0,52,1,35,1,1,0,1,6,52+
0,52,1,19,0,1,0,0,4,52+
1,1,0,20,1,0,0,0,0,1
1,43,0,22,0,0,0,0,3,43
1,24,0,23,1,1,0,0,1,24
1,11,0,19,1,0,0,0,18,11
0,52,0,18,1,0,0,1,3,52+
0,52,1,38,0,1,0,1,2,52+
0,52,1,18,0,0,0,1,6,52+
0,52,0,22,1,1,1,1,1,52+
1,33,0,21,1,0,0,1,3,33
0,52,0,21,1,1,0,1,1,52+
1,46,1,21,1,0,0,1,5,46
1,36,1,17,1,0,0,1,3,36
0,52,1,22,1,1,0,1,1,52+
0,52,1,23,1,1,1,1,0,52+
1,18,1,19,1,0,0,1,4,18
0,52,1,21,1,1,0,0,1,52+
0,52,1,35,1,1,0,0,5,52+
1,50,0,23,1,1,0,0,8,50
0,52,1,22,1,0,0,0,2,52+
1,34,1,25,1,0,0,0,11,34
0,52,1,20,1,1,0,0,4,52+
1,35,1,19,0,0,0,0,1,35
0,52,0,20,1,0,0,0,1,52+
0,52,1,41,0,1,1,1,3,52+
1,39,0,23,0,1,0,1,4,39
1,9,1,26,1,1,0,0,0,9
0,52,0,26,1,0,0,0,2,52+
0,52,1,38,1,1,0,1,1,52+
0,52,0,27,1,1,0,1,1,52+
1,34,1,19,1,0,0,1,3,34
0,52,0,25,1,1,0,0,1,52+
0,52,1,30,1,1,0,0,2,52+
0,52,1,42,1,1,0,0,1,52+
1,44,0,20,1,1,0,1,2,44
0,52,1,23,1,1,0,1,1,52+
0,52,0,21,1,0,0,1,3,52+
1,35,1,20,1,1,0,0,3,35
1,30,0,17,1,0,0,0,1,30
1,39,1,26,1,0,1,0,5,39
0,52,1,24,1,1,0,1,1,52+
0,52,0,37,1,1,1,1,1,52+
0,52,0,28,1,1,1,1,1,52+
0,52,0,33,1,1,0,1,0,52+
1,19,1,22,1,0,0,1,4,19
0,52,0,25,1,1,1,1,2,52+
1,43,0,20,0,0,1,0,10,43
0,52,0,20,1,0,0,0,1,52+
1,48,1,24,0,1,0,0,4,48
1,37,1,26,0,0,0,0,11,37
1,20,1,26,1,1,0,1,1,20
0,52,0,25,0,1,0,1,1,52+
0,52,0,26,1,1,0,1,1,52+
1,36,1,23,1,0,0,0,3,36
0,52,1,28,1,0,0,1,4,52+
0,52,0,27,1,1,0,1,0,52+
0,52,1,23,1,0,0,0,3,52+
0,52,0,17,1,0,0,1,7,52+
0,52,0,20,0,0,0,1,4,52+
0,52,1,20,1,0,0,1,5,52+
0,52,1,20,0,0,0,1,9,52+
1,30,1,22,1,1,0,1,2,30
0,52,0,31,1,0,0,1,1,52+
0,52,0,43,1,1,0,0,1,52+
0,52,0,29,1,1,0,0,1,52+
0,52,1,21,1,0,0,0,0,52+
0,52,0,24,0,1,0,0,2,52+
0,52,1,30,1,1,1,0,3,52+
0,52,0,22,1,1,0,0,0,52+
0,52,1,26,1,1,1,0,1,52+
1,42,1,20,1,1,0,0,0,42
0,52,0,23,1,1,0,0,6,52+
0,52,0,25,1,1,0,1,5,52+
0,52,1,40,1,1,0,1,2,52+
0,52,1,30,1,1,1,1,0,52+
1,26,0,22,1,0,1,1,2,26
1,40,0,18,1,0,0,1,2,40
0,52,0,18,1,0,0,1,0,52+
0,52,0,24,1,1,0,1,2,52+
0,52,1,25,1,1,1,1,2,52+
1,35,1,19,1,0,0,1,2,35
0,52,0,24,1,1,0,1,2,52+
1,46,0,24,1,0,1,1,2,46
0,52,0,18,1,1,0,1,3,52+
1,49,1,18,1,1,0,1,0,49
0,52,0,23,1,1,0,0,0,52+
0,52,0,20,1,0,0,1,2,52+
1,49,1,18,1,1,0,1,1,49
0,52,0,23,1,1,0,1,2,52+
0,52,1,20,1,0,0,1,1,52+
0,52,0,23,1,0,0,0,5,52+
0,52,0,23,1,1,0,1,1,52+
0,52,0,23,1,1,1,1,2,52+
1,35,0,20,1,1,0,1,4,35
0,52,1,26,1,1,1,0,4,52+
0,52,1,30,1,0,0,0,1,52+
0,52,1,36,0,1,0,0,4,52+
0,52,1,43,1,1,0,0,4,52+
1,27,0,20,0,1,0,0,1,27
0,52,1,24,1,1,0,1,1,52+
0,52,0,22,1,1,0,0,1,52+
0,52,1,20,1,0,1,0,1,52+
1,52,0,21,1,0,0,0,0,52
1,45,1,18,1,0,0,0,5,45
1,4,0,18,1,1,0,0,1,4
1,52,0,33,1,1,0,1,2,52
1,36,1,19,1,0,0,1,2,36
0,52,1,21,0,1,0,1,1,52+
0,52,1,21,1,0,0,1,1,52+
1,8,1,21,1,1,0,1,4,8
1,15,1,22,1,0,0,1,3,15
0,52,0,18,1,0,0,1,3,52+
1,19,0,18,1,0,0,0,2,19
0,52,0,24,1,1,0,1,2,52+
1,12,1,22,1,1,1,1,2,12
0,52,1,31,0,1,0,1,3,52+
0,52,0,20,1,0,0,1,1,52+
0,52,1,20,1,1,1,1,1,52+
0,52,0,29,1,1,0,1,3,52+
0,52,1,24,1,1,0,1,1,52+
